Perspectivas em ciências de dados na linguagem R
…
# A tibble: 3 × 2
  species   `mean(body_mass, na.rm = T)`
  <fct>                            <dbl>
1 Adelie                           3701.
2 Chinstrap                        3733.
3 Gentoo                           5076.

penguins |>
  group_by(species) |>
  filter(body_mass > mean(body_mass, na.rm = T))

# A tibble: 159 × 8
# Groups:   species [3]
   species island    bill_len bill_dep flipper_len body_mass sex     year
   <fct>   <fct>        <dbl>    <dbl>       <int>     <int> <fct>  <int>
 1 Adelie  Torgersen     39.1     18.7         181      3750 male    2007
 2 Adelie  Torgersen     39.5     17.4         186      3800 female  2007
 3 Adelie  Torgersen     39.2     19.6         195      4675 male    2007
 4 Adelie  Torgersen     42       20.2         190      4250 <NA>    2007
 5 Adelie  Torgersen     38.6     21.2         191      3800 male    2007
 6 Adelie  Torgersen     34.6     21.1         198      4400 male    2007
 7 Adelie  Torgersen     42.5     20.7         197      4500 male    2007
 8 Adelie  Torgersen     46       21.5         194      4200 male    2007
 9 Adelie  Biscoe        35.9     19.2         189      3800 female  2007
10 Adelie  Biscoe        38.2     18.1         185      3950 male    2007
# ℹ 149 more rows
…
race_results <-
  all_workflows |>
  workflow_map(
    "tune_race_anova",
    seed = 1503,
    resamples = dados_folds,
    grid = 25,
    control = race_ctrl
  )

collect_metrics(race_results) |> 
  filter(.metric == "rmse") |>
  arrange(mean)

# A tibble: 47 × 9
   wflow_id       .config   preproc model .metric .estimator  mean     n std_err
   <chr>          <chr>     <chr>   <chr> <chr>   <chr>      <dbl> <int>   <dbl>
 1 neural_network Preproce… recipe  mlp   rmse    standard   0.359     5  0.0687
 2 neural_network Preproce… recipe  mlp   rmse    standard   0.360     5  0.0736
 3 neural_network Preproce… recipe  mlp   rmse    standard   0.368     5  0.0716
 4 neural_network Preproce… recipe  mlp   rmse    standard   0.376     5  0.0654
 5 neural_network Preproce… recipe  mlp   rmse    standard   0.453     5  0.0747
 6 neural_network Preproce… recipe  mlp   rmse    standard   0.461     5  0.0939
 7 neural_network Preproce… recipe  mlp   rmse    standard   0.480     5  0.0798
 8 neural_network Preproce… recipe  mlp   rmse    standard   0.482     5  0.0763
 9 rforest        Preproce… recipe  rand… rmse    standard   0.489     5  0.108 
10 linear_reg     Preproce… recipe  line… rmse    standard   0.491     5  0.0738
# ℹ 37 more rows

collect_metrics(race_results) |> 
  filter(.metric == "rsq") |>
  arrange(desc(mean))

# A tibble: 47 × 9
   wflow_id       .config   preproc model .metric .estimator  mean     n std_err
   <chr>          <chr>     <chr>   <chr> <chr>   <chr>      <dbl> <int>   <dbl>
 1 neural_network Preproce… recipe  mlp   rsq     standard   0.949     5  0.0182
 2 neural_network Preproce… recipe  mlp   rsq     standard   0.949     5  0.0174
 3 neural_network Preproce… recipe  mlp   rsq     standard   0.946     5  0.0178
 4 neural_network Preproce… recipe  mlp   rsq     standard   0.946     5  0.0186
 5 neural_network Preproce… recipe  mlp   rsq     standard   0.918     4  0.0271
 6 neural_network Preproce… recipe  mlp   rsq     standard   0.917     5  0.0245
 7 neural_network Preproce… recipe  mlp   rsq     standard   0.914     5  0.0261
 8 neural_network Preproce… recipe  mlp   rsq     standard   0.913     5  0.0263
 9 neural_network Preproce… recipe  mlp   rsq     standard   0.907     4  0.0306
10 neural_network Preproce… recipe  mlp   rsq     standard   0.904     5  0.0245
# ℹ 37 more rows
…
Extraindo métricas para avaliar os resultados da validação cruzada.

collect_metrics(race_results2) |> 
  filter(.metric == "accuracy") |>
  arrange(desc(mean))

# A tibble: 34 × 9
   wflow_id .config         preproc model .metric .estimator  mean     n std_err
   <chr>    <chr>           <chr>   <chr> <chr>   <chr>      <dbl> <int>   <dbl>
 1 lreg     Preprocessor1_… recipe  mult… accura… multiclass 0.842     5  0.0225
 2 lreg     Preprocessor1_… recipe  mult… accura… multiclass 0.837     5  0.0285
 3 SVM_poly Preprocessor1_… recipe  svm_… accura… multiclass 0.837     5  0.0127
 4 lreg     Preprocessor1_… recipe  mult… accura… multiclass 0.833     5  0.0225
 5 lreg     Preprocessor1_… recipe  mult… accura… multiclass 0.833     5  0.0225
 6 lreg     Preprocessor1_… recipe  mult… accura… multiclass 0.833     5  0.0298
 7 lreg     Preprocessor1_… recipe  mult… accura… multiclass 0.823     5  0.0189
 8 lreg     Preprocessor1_… recipe  mult… accura… multiclass 0.814     5  0.0195
 9 lreg     Preprocessor1_… recipe  mult… accura… multiclass 0.809     5  0.0171
10 lreg     Preprocessor1_… recipe  mult… accura… multiclass 0.805     5  0.0158
# ℹ 24 more rows

collect_metrics(race_results2) |> 
  filter(.metric == "roc_auc") |>
  arrange(desc(mean))

# A tibble: 34 × 9
   wflow_id .config         preproc model .metric .estimator  mean     n std_err
   <chr>    <chr>           <chr>   <chr> <chr>   <chr>      <dbl> <int>   <dbl>
 1 lreg     Preprocessor1_… recipe  mult… roc_auc hand_till  0.964     5 0.0105 
 2 lreg     Preprocessor1_… recipe  mult… roc_auc hand_till  0.963     5 0.0104 
 3 lreg     Preprocessor1_… recipe  mult… roc_auc hand_till  0.963     5 0.0102 
 4 lreg     Preprocessor1_… recipe  mult… roc_auc hand_till  0.963     5 0.0103 
 5 lreg     Preprocessor1_… recipe  mult… roc_auc hand_till  0.963     5 0.0108 
 6 lreg     Preprocessor1_… recipe  mult… roc_auc hand_till  0.963     5 0.0113 
 7 lreg     Preprocessor1_… recipe  mult… roc_auc hand_till  0.963     5 0.0111 
 8 lreg     Preprocessor1_… recipe  mult… roc_auc hand_till  0.963     5 0.0112 
 9 lreg     Preprocessor1_… recipe  mult… roc_auc hand_till  0.962     5 0.0110 
10 lreg     Preprocessor1_… recipe  mult… roc_auc hand_till  0.962     5 0.00985
# ℹ 24 more rows
…
